manufacturer,model,displ,year,cyl,trans,drv,cty,hwy,fl,class
chevrolet,c1500 suburban 2wd,5.3,2008,8,auto(l4),r,14,20,r,suv
chevrolet,c1500 suburban 2wd,5.3,2008,8,auto(l4),r,11,15,e,suv
chevrolet,c1500 suburban 2wd,5.3,2008,8,auto(l4),r,14,20,r,suv
chevrolet,c1500 suburban 2wd,5.7,1999,8,auto(l4),r,13,17,r,suv
chevrolet,c1500 suburban 2wd,6,2008,8,auto(l4),r,12,17,r,suv
chevrolet,k1500 tahoe 4wd,5.3,2008,8,auto(l4),4,14,19,r,suv
chevrolet,k1500 tahoe 4wd,5.3,2008,8,auto(l4),4,11,14,e,suv
chevrolet,k1500 tahoe 4wd,5.7,1999,8,auto(l4),4,11,15,r,suv
chevrolet,k1500 tahoe 4wd,6.5,1999,8,auto(l4),4,14,17,d,suv
dodge,durango 4wd,3.9,1999,6,auto(l4),4,13,17,r,suv
dodge,durango 4wd,4.7,2008,8,auto(l5),4,13,17,r,suv
dodge,durango 4wd,4.7,2008,8,auto(l5),4,9,12,e,suv
dodge,durango 4wd,4.7,2008,8,auto(l5),4,13,17,r,suv
dodge,durango 4wd,5.2,1999,8,auto(l4),4,11,16,r,suv
dodge,durango 4wd,5.7,2008,8,auto(l5),4,13,18,r,suv
dodge,durango 4wd,5.9,1999,8,auto(l4),4,11,15,r,suv
ford,expedition 2wd,4.6,1999,8,auto(l4),r,11,17,r,suv
ford,expedition 2wd,5.4,1999,8,auto(l4),r,11,17,r,suv
ford,expedition 2wd,5.4,2008,8,auto(l6),r,12,18,r,suv
ford,explorer 4wd,4,1999,6,auto(l5),4,14,17,r,suv
ford,explorer 4wd,4,1999,6,manual(m5),4,15,19,r,suv
ford,explorer 4wd,4,1999,6,auto(l5),4,14,17,r,suv
ford,explorer 4wd,4,2008,6,auto(l5),4,13,19,r,suv
ford,explorer 4wd,4.6,2008,8,auto(l6),4,13,19,r,suv
ford,explorer 4wd,5,1999,8,auto(l4),4,13,17,r,suv
jeep,grand cherokee 4wd,3,2008,6,auto(l5),4,17,22,d,suv
jeep,grand cherokee 4wd,3.7,2008,6,auto(l5),4,15,19,r,suv
jeep,grand cherokee 4wd,4,1999,6,auto(l4),4,15,20,r,suv
jeep,grand cherokee 4wd,4.7,1999,8,auto(l4),4,14,17,r,suv
jeep,grand cherokee 4wd,4.7,2008,8,auto(l5),4,9,12,e,suv
jeep,grand cherokee 4wd,4.7,2008,8,auto(l5),4,14,19,r,suv
jeep,grand cherokee 4wd,5.7,2008,8,auto(l5),4,13,18,r,suv
jeep,grand cherokee 4wd,6.1,2008,8,auto(l5),4,11,14,p,suv
land rover,range rover,4,1999,8,auto(l4),4,11,15,p,suv
land rover,range rover,4.2,2008,8,auto(s6),4,12,18,r,suv
land rover,range rover,4.4,2008,8,auto(s6),4,12,18,r,suv
land rover,range rover,4.6,1999,8,auto(l4),4,11,15,p,suv
lincoln,navigator 2wd,5.4,1999,8,auto(l4),r,11,17,r,suv
lincoln,navigator 2wd,5.4,1999,8,auto(l4),r,11,16,p,suv
lincoln,navigator 2wd,5.4,2008,8,auto(l6),r,12,18,r,suv
mercury,mountaineer 4wd,4,1999,6,auto(l5),4,14,17,r,suv
mercury,mountaineer 4wd,4,2008,6,auto(l5),4,13,19,r,suv
mercury,mountaineer 4wd,4.6,2008,8,auto(l6),4,13,19,r,suv
mercury,mountaineer 4wd,5,1999,8,auto(l4),4,13,17,r,suv
nissan,pathfinder 4wd,3.3,1999,6,auto(l4),4,14,17,r,suv
nissan,pathfinder 4wd,3.3,1999,6,manual(m5),4,15,17,r,suv
nissan,pathfinder 4wd,4,2008,6,auto(l5),4,14,20,p,suv
nissan,pathfinder 4wd,5.6,2008,8,auto(s5),4,12,18,p,suv
subaru,forester awd,2.5,1999,4,manual(m5),4,18,25,r,suv
subaru,forester awd,2.5,1999,4,auto(l4),4,18,24,r,suv
subaru,forester awd,2.5,2008,4,manual(m5),4,20,27,r,suv
subaru,forester awd,2.5,2008,4,manual(m5),4,19,25,p,suv
subaru,forester awd,2.5,2008,4,auto(l4),4,20,26,r,suv
subaru,forester awd,2.5,2008,4,auto(l4),4,18,23,p,suv
toyota,4runner 4wd,2.7,1999,4,manual(m5),4,15,20,r,suv
toyota,4runner 4wd,2.7,1999,4,auto(l4),4,16,20,r,suv
toyota,4runner 4wd,3.4,1999,6,auto(l4),4,15,19,r,suv
toyota,4runner 4wd,3.4,1999,6,manual(m5),4,15,17,r,suv
toyota,4runner 4wd,4,2008,6,auto(l5),4,16,20,r,suv
toyota,4runner 4wd,4.7,2008,8,auto(l5),4,14,17,r,suv
toyota,land cruiser wagon 4wd,4.7,1999,8,auto(l4),4,11,15,r,suv
toyota,land cruiser wagon 4wd,5.7,2008,8,auto(s6),4,13,18,r,suv
