﻿ROOT,,Category,,Sub-Category,,Sub-Sub-Category,,
CAT-00000,Catalog Root,,,,,,,
,,CAT-DAAAH,COVID-19,,,,,
,,,,CAT-6JGUC,PPE,,,
,,,,,,CAT-XWKP2,Face Masks and Shields,
,,,,CAT-W12XT,Antiviral Small Format,,,
,,,,CAT-N013R,Posters,,,
,,,,CAT-JZ2U7,Floor Stickers,,,
,,,,CAT-EB5AP,Antiviral Small Format,,,
,,,,CAT-EPQ5Z,Wipes,,,
,,,,CAT-DGF3J,Protective Masks,,,
,,,,CAT-0GU7Z,Banners and Green Screens,,,
,,,,CAT-CT467,Wipes,,,
,,,,CAT-9YPDD,Postcards,,,
,,CAT-00002,Bags,,,,,
,,,,CAT-00026,Pouch,,,
,,,,CAT-00019,Duffle & gym bag,,,
,,,,CAT-00023,Luggage,,,
,,,,CAT-00017,Backpacks,,,
,,,,CAT-00018,Briefcases,,,
,,,,CAT-00024,Messenger bags,,,
,,,,CAT-00022,Laptop Sleeves,,,
,,,,CAT-00020,Handbag,,,
,,,,CAT-00025,Packaging Bag,,,
,,,,CAT-00027,Shoulder Bag,,,
,,,,CAT-00028,Tote bags,,,
,,,,CAT-00021,Insulated Bags,,,
,,,,CAT-00212,Laptop Bags,,,
,,CAT-00006,Promotional Products,,,,,
,,,,CAT-00057,Clock,,,
,,,,CAT-00064,Lanyard,,,
,,,,CAT-00252,Stamps,,,
,,,,CAT-00251,Bath robe,,,
,,,,CAT-00247,Storage items,,,
,,,,,,CAT-00248,Food container,
,,,,,,CAT-00137,Pill Case,
,,,,CAT-00058,Drinkware,,,
,,,,,,CAT-00140,Tumblers,
,,,,,,CAT-00144,Cups,
,,,,,,CAT-00143,Mugs,
,,,,,,CAT-00142,Flask,
,,,,,,CAT-00145,Water Bag,
,,,,,,CAT-00139,Coolie,
,,,,,,CAT-00141,Bottles,
,,,,,,,,
,,,,CAT-00080,Travel Accessories,,,
,,,,,,CAT-00190,Travel Bag,
,,,,,,CAT-00189,Travel Tag,
,,,,,,CAT-00187,Travel Wallet,
,,,,,,CAT-00188,Organizer,
,,,,,,CAT-00191,Travel Rest Kit,
,,,,,,CAT-00186,Electronics,
,,,,CAT-00078,Towel,,,
,,,,CAT-00056,Electronic Case,,,
,,,,,,CAT-00136,Phone Cases,
,,,,,,CAT-00138,Tablet Case,
,,,,CAT-00072,Power Supply,,,
,,,,,,CAT-00174,USB Port Hub/Adaptor,
,,,,,,CAT-00173,Power Bank,
,,,,,,CAT-00172,Charging Cable,
,,,,CAT-00071,Pet Products,,,
,,,,CAT-00062,Health & Beauty,,,
,,,,CAT-00066,Writing,,,
,,,,,,CAT-00157,Pens,
,,,,,,CAT-00154,Writing Set,
,,,,,,CAT-00156,Highlighters & Markers,
,,,,,,CAT-00155,Pencils,
,,,,CAT-00070,Padfolio,,,
,,,,CAT-00081,Watches,,,
,,,,CAT-00254,Fan,,,
,,,,CAT-00208,Buttons and Pins,,,
,,,,CAT-00067,Office Supply,,,
,,,,,,CAT-00227,Calculator,
,,,,,,CAT-00211,Journal,
,,,,,,CAT-00166,Stress Reliever,
,,,,,,CAT-00158,Mouse Pad,
,,,,,,CAT-00165,USB Flash Drive,
,,,,,,CAT-00228,Weather Station,
,,,,,,CAT-00159,Notebooks,
,,,,,,CAT-00230,Docking station,
,,,,,,CAT-00233,Notepad,
,,,,,,CAT-00231,Customized magnets,
,,,,,,CAT-00162,Desk Organizer,
,,,,,,CAT-00164,Magnetic Clip,
,,,,,,CAT-00229,Keyboard,
,,,,,,CAT-00160,Sticky Notes,
,,,,,,CAT-00249,Desk caddy,
,,,,,,CAT-00232,Diary,
,,,,,,CAT-00167,Bookmark,
,,,,,,CAT-00163,Laser,
,,,,,,CAT-00226,Deskpad,
,,,,CAT-00079,Toys,,,
,,,,,,CAT-00235,Fidget Spinner,
,,,,,,CAT-00253,Bracelet and Wristbands,
,,,,,,CAT-00234,Frisbee,
,,,,CAT-00241,Holiday items,,,
,,,,,,CAT-00068,Ornament,
,,,,,,CAT-00242,Holiday hats,
,,,,CAT-00076,Tool,,,
,,,,,,CAT-00178,Desktop Tool,
,,,,,,CAT-00179,Outdoor Items,
,,,,,,CAT-00180,Garden Tool,
,,,,,,CAT-00177,Light,
,,,,,,CAT-00176,Bike Tool,
,,,,,,CAT-00182,Kitchen Tool,
,,,,,,CAT-00181,Housewares,
,,,,CAT-00059,Electronic Accessories,,,
,,,,,,CAT-00148,Media Stand,
,,,,,,CAT-00146,Computer Mouse,
,,,,,,CAT-00147,Stylus,
,,,,CAT-00065,Lighters,,,
,,,,CAT-00073,Seating,,,
,,,,,,CAT-00238,Chair,
,,,,,,CAT-00240,Ottoman,
,,,,,,CAT-00239,Seat cushion,
,,,,CAT-00061,Game,,,
,,,,,,CAT-00236,Board game,
,,,,,,CAT-00237,Puzzle,
,,,,CAT-00077,Tool Set,,,
,,,,,,CAT-00185,First Aid Kit,
,,,,,,CAT-00183,BBQ Set,
,,,,CAT-00054,Badge Holder,,,
,,,,CAT-00052,Audio,,,
,,,,,,CAT-00123,Earbuds,
,,,,,,CAT-00125,Speaker,
,,,,,,CAT-00124,Headphone,
,,,,CAT-00216,Award,,,
,,,,CAT-00063,Keychain,,,
,,,,CAT-00069,Outdoor Items,,,
,,,,,,CAT-00244,Hammock,
,,,,,,CAT-00245,Monocular,
,,,,,,CAT-00171,Sunglasses,
,,,,,,CAT-00169,Beach Mat,
,,,,,,CAT-00246,Binocular,
,,,,,,CAT-00168,Umbrella,
,,,,,,CAT-00170,Compass,
,,,,CAT-00060,Fitness Items,,,
,,,,,,CAT-00150,Sport Ball,
,,,,,,CAT-00149,Fitness Tracker,
,,,,,,CAT-00153,Fitness Kit,
,,,,,,CAT-00152,Armband,
,,,,,,CAT-00151,Fitness Band,
,,,,CAT-00053,Auto Accessory,,,
,,,,,,CAT-00126,Organizer,
,,,,,,CAT-00132,Adapter,
,,,,,,CAT-00133,Sunglasses,
,,,,,,CAT-00129,Electronics,
,,,,,,CAT-00128,Charger,
,,,,CAT-00055,Blanket,,,
,,,,CAT-00210,Ballon,,,
,,,,CAT-00225,Floor Mat,,,
,,,,CAT-00082,Wine Items,,,
,,CAT-HWD7T,Services,,,,,
,,,,CAT-00301,Design Services,,,
,,,,CAT-00300,Digital Services,,,
,,CAT-00007,Small Format,,,,,
,,,,CAT-00094,Magnets,,,
,,,,,,CAT-00221,Magnetic calendars,
,,,,,,CAT-00219,Car magnets,
,,,,,,CAT-00222,Magnetic business cards,
,,,,,,CAT-00220,Postcard magnets,
,,,,CAT-00207,Posters,,,
,,,,CAT-00088,Decals,,,
,,,,CAT-00256,Coasters,,,
,,,,CAT-00096,Postcards,,,
,,,,CAT-00090,Flyers,,,
,,,,,,CAT-00197,Folded Flyers,
,,,,CAT-00209,Compliment Slips,,,
,,,,CAT-00086,Cards,,,
,,,,,,CAT-00194,Flat Cards,
,,,,,,CAT-00195,Folded Cards,
,,,,CAT-00083,Accessories,,,
,,,,,,CAT-00223,Business card holder,
,,,,,,CAT-00224,Envelopes,
,,,,CAT-00203,Envelope,,,
,,,,CAT-00092,Labels & Stickers,,,
,,,,,,CAT-00202,Sticker Sheets,
,,,,,,CAT-00201,Roll Labels,
,,,,,,CAT-00200,Domed Labels,
,,,,,,CAT-00199,Roll Stickers,
,,,,CAT-00085,Business Cards,,,
,,,,CAT-00097,Table displays,,,
,,,,CAT-00255,Tags,,,
,,,,CAT-00098,Letterhead,,,
,,,,CAT-00089,Door Hangers,,,
,,,,CAT-00084,Brochures,,,
,,,,CAT-00087,Data Sheets,,,
,,,,CAT-00095,Menus,,,
,,,,CAT-00091,Folder,,,
,,,,,,CAT-00198,Presentation Folders,
,,CAT-00001,Apparel,,,,,
,,,,CAT-00013,Outerwear,,,
,,,,,,CAT-00105,Outerwear Set,
,,,,,,CAT-00108,Vest,
,,,,,,CAT-00103,Cardigan,
,,,,,,CAT-00106,Sweaters & Sweatshirts,
,,,,,,CAT-00101,Jackets,
,,,,,,CAT-00104,Hoodie,
,,,,,,CAT-00102,Blazer,
,,,,CAT-00015,Shirts,,,
,,,,,,CAT-00111,T-shirts,
,,,,,,CAT-00109,Polo Shirts,
,,,,,,CAT-00110,Dress shirts,
,,,,CAT-00016,Bodysuits,,,
,,,,CAT-00014,Pants,,,
,,,,CAT-00011,Dresses,,,
,,,,CAT-00218,Shorts,,,
,,,,CAT-00012,Hats,,,
,,,,,,CAT-00099,Knit Hat,
,,,,,,CAT-00100,Cap,
,,,,CAT-00010,Clothing Accessories,,,
,,,,,,CAT-00243,Socks,
,,,,,,CAT-00214,Gloves,
,,,,,,CAT-00213,Scarf,
,,,,CAT-00008,Aprons,,,
,,CAT-00003,Books,,,,,
,,,,CAT-00031,Saddle Stitched,,,
,,,,CAT-00034,Unbound,,,
,,,,CAT-00032,Spiral Bound,,,
,,,,CAT-00030,Perfect bound,,,
,,,,CAT-00029,Magazines,,,
,,,,CAT-00035,Wire Binding,,,
,,,,CAT-00033,Staple binding,,,
,,CAT-00005,Large Format,,,,,
,,,,CAT-00045,Cardboard Displays,,,
,,,,CAT-00049,Signs,,,
,,,,CAT-00046,Constructed Fabric,,,
,,,,CAT-00048,Flags,,,
,,,,CAT-00050,Wallpaper,,,
,,,,CAT-00051,Posters,,,
,,,,,,CAT-00121,Indoor Poster,
,,,,,,CAT-00122,Outdoor Poster,
,,,,CAT-00047,Displays,,,
,,,,,,CAT-00117,Tent,
,,,,,,CAT-00115,Counter Displays,
,,,,,,CAT-00116,Display Flag,
,,,,,,CAT-00118,Pop-up Displays,
,,,,,,CAT-00120,Table Runner/Table Throw,
,,,,,,CAT-00119,Chair Displays,
,,,,,,CAT-00114,POS,
,,,,CAT-00044,Canvas Prints,,,
,,,,CAT-00042,Assembled Banner,,,
,,,,CAT-00040,Accessories,,,
,,,,CAT-00041,Adhesives,,,
,,,,,,CAT-00217,Wallpaper,
,,,,CAT-00043,Banners,,,
,,CAT-00004,Gifts,,,,,
,,,,CAT-00039,Frame,,,
,,,,CAT-00038,Fragrance,,,
,,,,CAT-00215,CD and DVD,,,
,,,,CAT-00037,Food and Candy,,,
,,,,CAT-00250,Pillows,,,
,,,,CAT-00036,Calendar & Planner,,,
,,,,,,CAT-00112,Poster Calendars,
,,,,,,CAT-00113,Folded Calendars,
,,CAT-00204,Packaging,,,,,
,,,,CAT-00206,Wrapping Paper,,,
,,,,CAT-00205,Packaging Box,,,